%YAML 1.1
%TAG !u! tag:unity3d.com,2011:
--- !u!78 &1
TagManager:
  serializedVersion: 2
  tags:
  - Zombie
  - FxTemporaire
  - Wall
  - Ground
  - Target
  - Enemys
  - Zombies
  - ZombieParent
  - Pickable
  - Obstacle
  - Floor
  - Tank
  - EventWall
  - Cinecam
  layers:
  - Default
  - TransparentFX
  - Ignore Raycast
  - 
  - Water
  - UI
  - 
  - 
  - PostProcessing
  - Checkable
  - Enemy
  - ThrowObject
  - Zombie
  - Obstacle
  - Controller
  - EnemyAttack
  - Building
  - 
  - 
  - 
  - 
  - 
  - 
  - 
  - 
  - 
  - 
  - 
  - 
  - 
  - 
  - 
  m_SortingLayers:
  - name: Default
    uniqueID: 0
    locked: 0
